16 0.715744
24 0.994089
25 1.04711
26 0.450654
27 1.07362
28 0.728999
29 0.96758
30 1.15314
37 1.55078
38 1.23267
41 0.450654
56 0.609708
57 0.397636
58 0.450654
59 0.583199
60 0.265091
61 0.477163
62 0.503672
63 0.424145
64 0.424145
70 0.477163
71 0.609708
72 0.450654
73 0.371127
39 0.715744
40 0.583199
50 0.583199
51 0.689235
52 0.530181
53 0.371127
54 0.662726
55 0.477163
75 0.344618
76 0.397636
2 0.728999
3 0.728999
4 0.888053
5 0.861544
14 0.96758
15 1.10013
23 0.477163
36 0.636217
42 0.2916
43 0.318109
44 0.344618
1 0.503672
6 0.835035
7 0.662726
8 0.503672
9 0.397636
10 0.318109
11 0.318109
12 0.477163
13 0.530181
17 0.835035
18 0.782017
19 0.835035
20 0.503672
21 0.55669
22 0.344618
31 0.861544
32 0.265091
33 0.2916
34 0.318109
35 0.371127
45 0.2916
46 0.2916
48 0.450654
49 0.609708
65 0.371127
66 0.861544
67 0.450654
68 0.265091
69 0.424145
74 0.371127
77 0.424145
78 0.477163
79 0.477163
80 0.450654
